encoder3_8/proj/simulation/qsim/encoder3_8.msim.vcd
$comment
	File created using the following command:
		vcd file encoder3_8.msim.vcd -direction
$end
$date
	Mon Aug 23 16:43:00 2021
$end
$version
	ModelSim Version 10.1d
$end
$timescale
	1ps
$end
$scope module encoder3_8_vlg_vec_tst $end
$var reg 1 ! a $end
$var reg 1 " b $end
$var reg 1 # c $end
$var wire 1 $ out [7] $end
$var wire 1 % out [6] $end
$var wire 1 & out [5] $end
$var wire 1 ' out [4] $end
$var wire 1 ( out [3] $end
$var wire 1 ) out [2] $end
$var wire 1 * out [1] $end
$var wire 1 + out [0] $end
$var wire 1 , sampler $end
$scope module i1 $end
$var wire 1 - gnd $end
$var wire 1 . vcc $end
$var wire 1 / unknown $end
$var tri1 1 0 devclrn $end
$var tri1 1 1 devpor $end
$var tri1 1 2 devoe $end
$var wire 1 3 out[0]~output_o $end
$var wire 1 4 out[1]~output_o $end
$var wire 1 5 out[2]~output_o $end
$var wire 1 6 out[3]~output_o $end
$var wire 1 7 out[4]~output_o $end
$var wire 1 8 out[5]~output_o $end
$var wire 1 9 out[6]~output_o $end
$var wire 1 : out[7]~output_o $end
$var wire 1 ; a~input_o $end
$var wire 1 < c~input_o $end
$var wire 1 = b~input_o $end
$var wire 1 > ShiftLeft0~0_combout $end
$var wire 1 ? ShiftLeft0~1_combout $end
$var wire 1 @ ShiftLeft0~2_combout $end
$var wire 1 A ShiftLeft0~3_combout $end
$var wire 1 B ShiftLeft0~4_combout $end
$var wire 1 C ShiftLeft0~5_combout $end
$var wire 1 D ShiftLeft0~6_combout $end
$var wire 1 E ShiftLeft0~7_combout $end
$upscope $end
$upscope $end
$enddefinitions $end
#0
$dumpvars
1!
1"
1#
0+
0*
0)
0(
0'
0&
0%
1$
x,
0-
1.
x/
10
11
12
03
04
05
06
07
08
09
1:
1;
1<
1=
1>
0?
1@
0A
1B
0C
1D
1E
$end
#10000
0!
0"
0;
0=
0,
0E
1?
0:
14
0$
1*
#30000
0#
1"
0<
1=
1,
0@
0?
15
04
1)
0*
#50000
1!
1;
0,
0D
1@
19
05
1%
0)
#60000
0"
0!
0=
0;
1,
1D
0>
09
13
0%
1+
#70000
1#
1"
1!
1<
1=
1;
0,
1>
1E
03
1:
0+
1$
#80000
0#
0"
0<
0=
1,
0B
0E
17
0:
1'
0$
#90000
0!
1#
0;
1<
0,
1B
1?
07
14
0'
1*
#100000
1!
1;
1,
1C
0?
18
04
1&
0*
#110000
0#
0!
0<
0;
0,
0>
0C
13
08
1+
0&
#120000
1"
1#
1=
1<
1,
1>
1A
03
16
0+
1(
#130000
1!
0"
1;
0=
0,
1C
0A
18
06
1&
0(
#140000
0#
0!
1"
0<
0;
1=
1,
0@
0C
15
08
1)
0&
#150000
1#
1!
0"
1<
1;
0=
0,
1@
1C
05
18
0)
1&
#160000
0#
0!
0<
0;
1,
0>
0C
13
08
1+
0&
#170000
1#
1<
0,
1>
1?
03
14
0+
1*
#180000
1"
1=
1,
1A
0?
16
04
1(
0*
#190000
1!
0#
1;
0<
0,
0D
0A
19
06
1%
0(
#200000
0!
0;
1,
1D
0@
09
15
0%
1)
#210000
0"
0=
0,
1@
0>
05
13
0)
1+
#220000
1#
1!
1"
1<
1;
1=
1,
1>
1E
03
1:
0+
1$
#230000
0!
0;
0,
0E
1A
0:
16
0$
1(
#250000
1!
1;
1,
1E
0A
1:
06
1$
0(
#260000
0#
0<
0,
0D
0E
19
0:
1%
0$
#280000
1#
1<
1,
1D
1E
09
1:
0%
1$
#290000
0!
0;
0,
0E
1A
0:
16
0$
1(
#300000
1!
1;
1,
1E
0A
1:
06
1$
0(
#310000
0#
0<
0,
0D
0E
19
0:
1%
0$
#320000
0!
0;
1,
1D
0@
09
15
0%
1)
#330000
1#
1<
0,
1@
1A
05
16
0)
1(
#350000
0"
0#
0=
0<
1,
0>
0A
13
06
1+
0(
#360000
1!
1;
0,
0B
1>
17
03
1'
0+
#370000
1#
0!
1<
0;
1,
1B
1?
07
14
0'
1*
#380000
1"
1!
1=
1;
0,
1E
0?
1:
04
1$
0*
#400000
0"
0!
0=
0;
1,
0E
1?
0:
14
0$
1*
#410000
0#
1"
1!
0<
1=
1;
0,
0D
0?
19
04
1%
0*
#420000
0!
0;
1,
1D
0@
09
15
0%
1)
#440000
0"
0=
0,
1@
0>
05
13
0)
1+
#450000
1#
1!
1<
1;
1,
1>
1C
03
18
0+
1&
#460000
1"
0!
1=
0;
0,
0C
1A
08
16
0&
1(
#470000
0#
0"
0<
0=
1,
0>
0A
13
06
1+
0(
#480000
1#
1<
0,
1>
1?
03
14
0+
1*
#490000
1!
1"
1;
1=
1,
1E
0?
1:
04
1$
0*
#500000
0"
0=
0,
0E
1C
0:
18
0$
1&
#510000
0#
0!
1"
0<
0;
1=
1,
0@
0C
15
08
1)
0&
#520000
1#
1<
0,
1@
1A
05
16
0)
1(
#530000
0"
0#
0=
0<
1,
0>
0A
13
06
1+
0(
#550000
1#
1<
0,
1>
1?
03
14
0+
1*
#560000
1"
1=
1,
1A
0?
16
04
1(
0*
#570000
0#
0<
0,
0@
0A
15
06
1)
0(
#580000
0"
0=
1,
1@
0>
05
13
0)
1+
#600000
1!
1#
1;
1<
0,
1>
1C
03
18
0+
1&
#610000
0!
0;
1,
0C
1?
08
14
0&
1*
#620000
1"
1!
1=
1;
0,
1E
0?
1:
04
1$
0*
#630000
0#
0"
0<
0=
1,
0B
0E
17
0:
1'
0$
#640000
1#
1<
0,
1B
1C
07
18
0'
1&
#660000
0!
1"
0;
1=
1,
0C
1A
08
16
0&
1(
#670000
1!
1;
0,
1E
0A
1:
06
1$
0(
#680000
0"
0=
1,
0E
1C
0:
18
0$
1&
#690000
0#
0<
0,
0B
0C
17
08
1'
0&
#700000
1#
1<
1,
1B
1C
07
18
0'
1&
#710000
1"
1=
0,
1E
0C
1:
08
1$
0&
#720000
0#
0<
1,
0D
0E
19
0:
1%
0$
#730000
0!
1#
0;
1<
0,
1D
1A
09
16
0%
1(
#740000
0"
1!
0=
1;
1,
1C
0A
18
06
1&
0(
#750000
0#
0!
0<
0;
0,
0>
0C
13
08
1+
0&
#760000
1"
1!
1=
1;
1,
0D
1>
19
03
1%
0+
#770000
1#
1<
0,
1D
1E
09
1:
0%
1$
#780000
0!
0#
0;
0<
1,
0@
0E
15
0:
1)
0$
#790000
0"
1!
0=
1;
0,
0B
1@
17
05
1'
0)
#800000
1#
1<
1,
1B
1C
07
18
0'
1&
#810000
0!
0#
0;
0<
0,
0>
0C
13
08
1+
0&
#820000
1"
1#
1=
1<
1,
1>
1A
03
16
0+
1(
#830000
1!
0#
1;
0<
0,
0D
0A
19
06
1%
0(
#840000
1#
1<
1,
1D
1E
09
1:
0%
1$
#850000
0!
0#
0;
0<
0,
0@
0E
15
0:
1)
0$
#860000
0"
1!
0=
1;
1,
0B
1@
17
05
1'
0)
#880000
1#
1<
0,
1B
1C
07
18
0'
1&
#890000
0#
0<
1,
0B
0C
17
08
1'
0&
#900000
1"
1#
1=
1<
0,
1B
1E
07
1:
0'
1$
#910000
0#
0<
1,
0D
0E
19
0:
1%
0$
#920000
0!
0"
1#
0;
0=
1<
0,
1D
1?
09
14
0%
1*
#930000
0#
0<
1,
0>
0?
13
04
1+
0*
#940000
1"
1=
0,
0@
1>
15
03
1)
0+
#950000
1#
1<
1,
1@
1A
05
16
0)
1(
#960000
0#
0<
0,
0@
0A
15
06
1)
0(
#970000
0"
1#
0=
1<
1,
1@
1?
05
14
0)
1*
#980000
1!
1"
0#
1;
1=
0<
0,
0D
0?
19
04
1%
0*
#990000
0"
0=
1,
1D
0B
09
17
0%
1'
