mux2_1/proj/simulation/qsim/mux2_1.msim.vcd
$comment
	File created using the following command:
		vcd file mux2_1.msim.vcd -direction
$end
$date
	Mon Aug 23 12:23:49 2021
$end
$version
	ModelSim Version 10.1d
$end
$timescale
	1ps
$end
$scope module mux2_1_vlg_vec_tst $end
$var reg 1 ! in_1 $end
$var reg 1 " in_2 $end
$var reg 1 # sel $end
$var wire 1 $ out $end
$var wire 1 % sampler $end
$scope module i1 $end
$var wire 1 & gnd $end
$var wire 1 ' vcc $end
$var wire 1 ( unknown $end
$var tri1 1 ) devclrn $end
$var tri1 1 * devpor $end
$var tri1 1 + devoe $end
$var wire 1 , out~output_o $end
$var wire 1 - in_1~input_o $end
$var wire 1 . in_2~input_o $end
$var wire 1 / sel~input_o $end
$var wire 1 0 out~0_combout $end
$upscope $end
$upscope $end
$enddefinitions $end
#0
$dumpvars
1!
1"
1#
1$
x%
0&
1'
x(
1)
1*
1+
1,
1-
1.
1/
10
$end
#10000
0!
0#
0-
0/
0%
#15000
0"
1#
0.
1/
1%
00
0,
0$
#25000
1"
1.
0%
#30000
1!
0"
1-
0.
1%
10
1,
1$
#35000
0!
0-
0%
00
0,
0$
#40000
0#
1"
1!
0/
1.
1-
1%
10
1,
1$
#45000
1#
0"
1/
0.
0%
#50000
0!
0-
1%
00
0,
0$
#55000
0#
1"
1!
0/
1.
1-
0%
10
1,
1$
#60000
0!
0-
1%
#65000
1!
1-
0%
#70000
1#
0"
0!
1/
0.
0-
1%
00
0,
0$
#75000
1"
1.
0%
#80000
0#
1!
0/
1-
1%
10
1,
1$
#85000
0"
0!
0.
0-
0%
00
0,
0$
#90000
1#
1"
1/
1.
1%
#100000
1!
0#
1-
0/
0%
10
1,
1$
#110000
0"
0.
1%
00
0,
0$
#115000
0!
1"
0-
1.
0%
10
1,
1$
#120000
1#
0"
1/
0.
1%
00
0,
0$
#125000
1!
0#
1"
1-
0/
1.
0%
10
1,
1$
#130000
0!
0-
1%
#140000
0"
1!
0.
1-
0%
00
0,
0$
#145000
1#
1"
1/
1.
1%
10
1,
1$
#150000
0!
0#
0"
0-
0/
0.
0%
00
0,
0$
#175000
1#
1/
1%
#180000
1"
0#
1.
0/
0%
10
1,
1$
#185000
1!
1-
1%
#190000
1#
1/
0%
#195000
0"
0!
0.
0-
1%
00
0,
0$
#200000
0#
0/
0%
#205000
1"
1.
1%
10
1,
1$
#210000
1!
1#
1-
1/
0%
#215000
0!
0#
0-
0/
1%
#220000
1!
1-
0%
#225000
0"
0.
1%
00
0,
0$
#230000
0!
1"
0-
1.
0%
10
1,
1$
#235000
0"
0.
1%
00
0,
0$
#240000
1#
1"
1/
1.
0%
#250000
0#
0/
1%
10
1,
1$
#255000
0"
0.
0%
00
0,
0$
#265000
1!
1"
1-
1.
1%
10
1,
1$
#270000
0!
0"
0-
0.
0%
00
0,
0$
#275000
1"
1.
1%
10
1,
1$
#280000
1!
0"
1-
0.
0%
00
0,
0$
#285000
1"
1.
1%
10
1,
1$
#290000
1#
0!
0"
1/
0-
0.
0%
00
0,
0$
#295000
0#
0/
1%
#300000
1#
1/
0%
#305000
1!
0#
1-
0/
1%
#310000
1"
0!
1.
0-
0%
10
1,
1$
#315000
1!
1-
1%
#320000
1#
0"
0!
1/
0.
0-
0%
00
0,
0$
#325000
1!
1-
1%
10
1,
1$
#330000
1"
0!
1.
0-
0%
00
0,
0$
#335000
0"
1!
0.
1-
1%
10
1,
1$
#345000
0#
0!
0/
0-
0%
00
0,
0$
#350000
1"
1!
1.
1-
1%
10
1,
1$
#355000
1#
0"
1/
0.
0%
#360000
0!
0#
0-
0/
1%
00
0,
0$
#365000
1"
1#
1.
1/
0%
#370000
0"
0#
0.
0/
1%
#375000
1"
1.
0%
10
1,
1$
#380000
1!
0"
1-
0.
1%
00
0,
0$
#385000
1#
0!
1/
0-
0%
#395000
0#
0/
1%
#400000
1!
1#
1-
1/
0%
10
1,
1$
#405000
0!
0-
1%
00
0,
0$
#410000
1"
0#
1.
0/
0%
10
1,
1$
#415000
0"
0.
1%
00
0,
0$
#425000
1!
1#
1-
1/
0%
10
1,
1$
#430000
1"
1.
1%
#440000
0!
0"
0-
0.
0%
00
0,
0$
#455000
0#
1"
0/
1.
1%
10
1,
1$
#465000
0"
0.
0%
00
0,
0$
#475000
1!
1-
1%
#480000
1#
0!
1/
0-
0%
#485000
1"
1!
1.
1-
1%
10
1,
1$
#490000
0!
0-
0%
00
0,
0$
#495000
0#
0"
1!
0/
0.
1-
1%
#500000
1#
0!
1/
0-
0%
#505000
1!
1-
1%
10
1,
1$
#510000
1"
0#
1.
0/
0%
#515000
0"
1#
0.
1/
1%
#520000
0!
0-
0%
00
0,
0$
#525000
0#
0/
1%
#530000
1!
1-
0%
#540000
1"
1.
1%
10
1,
1$
#545000
1#
0!
1/
0-
0%
00
0,
0$
#550000
0#
0/
1%
10
1,
1$
#555000
0"
1#
0.
1/
0%
00
0,
0$
#560000
1!
1"
0#
1-
1.
0/
1%
10
1,
1$
#565000
1#
1/
0%
#570000
0"
0.
1%
#575000
0!
1"
0-
1.
0%
00
0,
0$
#580000
0#
0/
1%
10
1,
1$
#590000
0"
0.
0%
00
0,
0$
#595000
1!
1-
1%
#600000
1#
1"
1/
1.
0%
10
1,
1$
#605000
0!
0-
1%
00
0,
0$
#610000
0#
1!
0/
1-
0%
10
1,
1$
#615000
1#
0!
1/
0-
1%
00
0,
0$
#620000
0"
0.
0%
#625000
0#
1!
0/
1-
1%
#630000
1#
1/
0%
10
1,
1$
#645000
0#
0/
1%
00
0,
0$
#650000
1"
1#
1.
1/
0%
10
1,
1$
#655000
0!
0-
1%
00
0,
0$
#660000
0#
1!
0/
1-
0%
10
1,
1$
#665000
0"
0!
0.
0-
1%
00
0,
0$
#670000
1#
1"
1!
1/
1.
1-
0%
10
1,
1$
#675000
0#
0!
0/
0-
1%
#680000
0"
1!
0.
1-
0%
00
0,
0$
#685000
1#
1"
0!
1/
1.
0-
1%
#690000
0"
1!
0.
1-
0%
10
1,
1$
#695000
1"
0!
1.
0-
1%
00
0,
0$
#700000
0#
1!
0/
1-
0%
10
1,
1$
#710000
0!
0-
1%
#720000
0"
0.
0%
00
0,
0$
#725000
1"
1.
1%
10
1,
1$
#730000
0"
0.
0%
00
0,
0$
#735000
1#
1!
1/
1-
1%
10
1,
1$
#740000
1"
1.
0%
#745000
0"
0.
1%
#755000
0#
0/
0%
00
0,
0$
#760000
1"
1.
1%
10
1,
1$
#765000
0!
0-
0%
#770000
0"
1!
0.
1-
1%
00
0,
0$
#775000
1#
1/
0%
10
1,
1$
#780000
1"
0!
1.
0-
1%
00
0,
0$
#785000
0#
0"
1!
0/
0.
1-
0%
#790000
1#
1/
1%
10
1,
1$
#795000
1"
0!
1.
0-
0%
00
0,
0$
#800000
0#
0/
1%
10
1,
1$
#805000
1!
1#
1-
1/
0%
#810000
0#
0/
1%
#815000
1#
1/
0%
#825000
0"
0!
0.
0-
1%
00
0,
0$
#830000
0#
1!
0/
1-
0%
#835000
1#
0!
1/
0-
1%
#840000
1"
0#
1!
1.
0/
1-
0%
10
1,
1$
#845000
0"
0!
0.
0-
1%
00
0,
0$
#850000
1#
1/
0%
#855000
1"
1!
1.
1-
1%
10
1,
1$
#860000
0#
0"
0!
0/
0.
0-
0%
00
0,
0$
#865000
1#
1"
1/
1.
1%
#870000
1!
0#
0"
1-
0/
0.
0%
#875000
0!
0-
1%
#885000
1!
1-
0%
#890000
1"
1.
1%
10
1,
1$
#895000
1#
0"
1/
0.
0%
#900000
0!
0#
0-
0/
1%
00
0,
0$
#905000
1"
1!
1.
1-
0%
10
1,
1$
#910000
1#
0"
0!
1/
0.
0-
1%
00
0,
0$
#915000
0#
0/
0%
#925000
1"
1!
1#
1.
1-
1/
1%
10
1,
1$
#930000
0"
0!
0#
0.
0-
0/
0%
00
0,
0$
#935000
1"
1!
1.
1-
1%
10
1,
1$
#945000
0"
0.
0%
00
0,
0$
#950000
1"
1.
1%
10
1,
1$
#955000
1#
0!
1/
0-
0%
00
0,
0$
#960000
0"
1!
0.
1-
1%
10
1,
1$
#970000
0#
0/
0%
00
0,
0$
#980000
1"
1.
1%
10
1,
1$
#985000
0!
1#
0-
1/
0%
00
0,
0$
#990000
0"
1!
0.
1-
1%
10
1,
1$
#995000
0#
1"
0!
0/
1.
0-
0%
