cola_saler/proj/simulation/qsim/saler.msim.vcd
$comment
	File created using the following command:
		vcd file saler.msim.vcd -direction
$end
$date
	Wed Sep 01 13:23:23 2021
$end
$version
	ModelSim Version 10.1d
$end
$timescale
	1ps
$end
$scope module saler_vlg_vec_tst $end
$var reg 1 ! clk $end
$var reg 1 " in_jiao $end
$var reg 1 # in_yuan $end
$var reg 1 $ rst $end
$var wire 1 % out_coin $end
$var wire 1 & out_cola $end
$var wire 1 ' state [2] $end
$var wire 1 ( state [1] $end
$var wire 1 ) state [0] $end
$var wire 1 * sampler $end
$scope module i1 $end
$var wire 1 + gnd $end
$var wire 1 , vcc $end
$var wire 1 - unknown $end
$var tri1 1 . devclrn $end
$var tri1 1 / devpor $end
$var tri1 1 0 devoe $end
$var wire 1 1 state[0]~output_o $end
$var wire 1 2 state[1]~output_o $end
$var wire 1 3 state[2]~output_o $end
$var wire 1 4 out_cola~output_o $end
$var wire 1 5 out_coin~output_o $end
$var wire 1 6 clk~input_o $end
$var wire 1 7 clk~inputclkctrl_outclk $end
$var wire 1 8 in_jiao~input_o $end
$var wire 1 9 in_yuan~input_o $end
$var wire 1 : Mux1~0_combout $end
$var wire 1 ; Mux1~1_combout $end
$var wire 1 < rst~input_o $end
$var wire 1 = rst~inputclkctrl_outclk $end
$var wire 1 > state[1]~reg0_q $end
$var wire 1 ? Mux0~2_combout $end
$var wire 1 @ Mux0~3_combout $end
$var wire 1 A state[2]~reg0_q $end
$var wire 1 B Mux2~0_combout $end
$var wire 1 C Mux2~1_combout $end
$var wire 1 D state[0]~reg0_q $end
$var wire 1 E out_cola~2_combout $end
$var wire 1 F out_cola~3_combout $end
$var wire 1 G out_cola~reg0_q $end
$var wire 1 H always2~0_combout $end
$var wire 1 I out_coin~reg0_q $end
$upscope $end
$upscope $end
$enddefinitions $end
#0
$dumpvars
0!
0"
1#
1$
0%
0&
0)
0(
0'
x*
0+
1,
x-
1.
1/
10
01
02
03
04
05
06
07
08
19
1:
1;
1<
1=
0>
0?
0@
0A
0B
0C
0D
0E
0F
0G
0H
0I
$end
#10000
1!
16
17
0*
1>
1E
1?
0:
12
1(
1@
0;
#20000
1"
0!
18
06
07
1*
1F
0@
0?
#30000
0#
1!
09
16
17
0*
0E
1B
1?
1:
0F
1C
1;
1G
0>
0?
0:
14
02
1&
0(
0;
#40000
0"
1#
0!
08
19
06
07
1*
0B
1:
0C
1;
#50000
1"
0#
1!
18
09
16
17
0*
1B
0:
1C
0;
0G
1>
1?
1:
04
12
0&
1(
1;
#60000
1#
0!
19
06
07
1*
1E
0B
0?
0:
1F
0C
0;
#70000
1!
16
17
0*
1G
0>
0E
1B
1?
1:
14
02
1&
0(
0F
1C
1;
#80000
0!
06
07
1*
#90000
0#
1!
09
16
17
0*
0?
0:
0;
0G
1D
1>
0B
1?
04
11
12
0&
1)
1(
0C
1@
#100000
0"
1#
0!
08
19
06
07
1*
1E
0@
1F
#110000
1"
1!
18
16
17
0*
1@
0?
0@
1G
0D
0>
1B
1:
0E
1?
14
01
02
1&
0)
0(
1C
1;
0F
#120000
0#
0!
09
06
07
1*
0?
0:
0;
#130000
1#
1!
19
16
17
0*
1?
1:
1;
0G
1D
0B
1@
0:
04
11
0&
1)
0C
0;
#140000
0"
0!
08
06
07
1*
1B
0@
0?
1:
1C
1;
#150000
1"
1!
18
16
17
0*
0B
1?
0:
0C
1@
0;
1>
1E
0?
12
1(
1F
0@
#160000
0#
0!
09
06
07
1*
0E
1?
0F
1@
#170000
1!
16
17
0*
0D
1A
0>
1B
0@
1E
0?
01
13
02
0)
1'
0(
1F
#180000
0"
1#
0!
08
19
06
07
1*
0B
1:
1H
#190000
1"
0#
1!
18
09
16
17
0*
1B
0:
0H
1I
1G
0A
0E
1C
15
14
03
1%
1&
0'
0F
#200000
1#
0!
19
06
07
1*
1?
1:
1;
#210000
0"
0#
1!
08
09
16
17
0*
0B
1@
0?
0:
0C
0@
0;
0I
0G
1D
1>
1B
1:
05
04
11
12
0%
0&
1)
1(
1C
1;
#220000
1"
0!
18
06
07
1*
0B
1?
0:
0C
1@
0;
#230000
1#
1!
19
16
17
0*
1E
0?
1F
0@
0D
1A
0>
1H
1B
1:
01
13
02
0)
1'
0(
#240000
0#
0!
09
06
07
1*
0H
0:
#250000
1#
1!
19
16
17
0*
1H
1:
1G
0A
0H
0E
1C
1?
1;
14
03
1&
0'
0F
#260000
0#
0!
09
06
07
1*
0?
0:
0;
#270000
1!
16
17
0*
0G
1D
0B
1:
04
11
0&
1)
0C
1;
#280000
0"
1#
0!
08
19
06
07
1*
1B
1C
#290000
1"
1!
18
16
17
0*
0B
1?
0:
0C
1@
0;
1>
1E
0?
12
1(
1F
0@
#300000
0#
0!
09
06
07
1*
0E
1?
0F
1@
#310000
1!
16
17
0*
0D
1A
0>
1B
0@
1E
0?
01
13
02
0)
1'
0(
1F
#320000
0!
06
07
1*
#330000
0"
1#
1!
08
19
16
17
0*
0B
1:
1H
1G
0A
0H
0F
0E
1;
14
03
1&
0'
#340000
0#
0!
09
06
07
1*
0:
0;
#350000
1"
1#
1!
18
19
16
17
0*
1B
1?
1:
1C
1;
0G
04
0&
#360000
0!
06
07
1*
#370000
0#
1!
09
16
17
0*
0?
0:
0;
1D
1>
0B
1?
11
12
1)
1(
0C
1@
#380000
0"
1#
0!
08
19
06
07
1*
1E
0@
1F
#390000
0#
1!
09
16
17
0*
0E
1B
0?
1:
0F
1C
1;
1G
0D
0>
0B
0:
14
01
02
1&
0)
0(
0C
0;
#400000
1#
0!
19
06
07
1*
1:
1;
#410000
1"
1!
18
16
17
0*
1B
1?
1C
0G
1>
1E
0B
0?
0:
04
12
0&
1(
1F
0C
0;
#420000
0#
0"
0!
09
08
06
07
1*
0E
1:
0F
1;
#430000
1"
1!
18
16
17
0*
1B
1?
1C
#440000
1#
0"
0!
19
08
06
07
1*
1E
0B
0:
1@
0C
0;
#450000
1!
16
17
0*
1A
0>
1H
1F
0?
1:
13
02
1'
0(
0@
#460000
0#
1"
0!
09
18
06
07
1*
0H
1B
0:
#470000
1#
1!
19
16
17
0*
1H
1:
1G
0A
0H
0E
1C
1?
1;
14
03
1&
0'
0F
#480000
0"
0#
0!
08
09
06
07
1*
0B
1@
0?
0:
0C
0@
0;
#490000
1"
1#
1!
18
19
16
17
0*
1B
1?
1:
1C
1;
0G
04
0&
#500000
0!
06
07
1*
#510000
0"
0#
1!
08
09
16
17
0*
0B
1@
0?
0:
0C
0@
0;
1D
1>
1B
1:
11
12
1)
1(
1C
1;
#520000
1"
1#
0!
18
19
06
07
1*
1E
0B
0:
1F
0C
0;
#530000
1!
16
17
0*
1G
0D
0>
1B
1:
0E
1?
14
01
02
1&
0)
0(
1C
1;
0F
#540000
0"
0#
0!
08
09
06
07
1*
0B
1@
0?
0:
0C
0@
0;
#550000
1"
1#
1!
18
19
16
17
0*
1B
1?
1:
1C
1;
0G
04
0&
#560000
0!
06
07
1*
#570000
0"
1!
08
16
17
0*
0B
1@
0?
0C
0@
1D
1>
0:
1E
1?
11
12
1)
1(
0;
1F
#580000
0!
06
07
1*
#590000
0#
1!
09
16
17
0*
0E
1B
0?
1:
0F
1C
1;
1G
0D
0>
0B
0:
14
01
02
1&
0)
0(
0C
0;
#600000
1#
0!
19
06
07
1*
1:
1;
#610000
1"
0#
1!
18
09
16
17
0*
1B
0:
1C
0;
0G
1>
1?
1:
04
12
0&
1(
1;
#620000
1#
0!
19
06
07
1*
1E
0B
0?
0:
1F
0C
0;
#630000
0"
0#
1!
08
09
16
17
0*
0F
0E
1:
1;
1G
0>
0:
14
02
1&
0(
0;
#640000
1#
0!
19
06
07
1*
1:
1;
#650000
1!
16
17
0*
0G
1>
1E
1?
0:
04
12
0&
1(
1@
0;
#660000
1"
0#
0!
18
09
06
07
1*
1F
0E
1B
0@
1:
0F
1C
1;
#670000
0"
1!
08
16
17
0*
0B
1@
0?
0C
0@
1D
1B
11
1)
1C
#680000
1#
1"
0!
19
18
06
07
1*
1E
0B
0:
1F
0C
0;
#690000
0#
1!
09
16
17
0*
0E
1?
0F
1@
1G
0D
0>
1B
0@
0?
14
01
02
1&
0)
0(
1C
#700000
0!
06
07
1*
#710000
0"
1!
08
16
17
0*
0B
0C
0G
1D
1B
04
11
0&
1)
1C
#720000
1#
0!
19
06
07
1*
1:
1;
#730000
1"
1!
18
16
17
0*
0B
1?
0:
0C
1@
0;
1>
1E
0?
12
1(
1F
0@
#740000
0#
0!
09
06
07
1*
0E
1?
0F
1@
#750000
1#
1!
19
16
17
0*
1E
0?
1F
0@
0D
1A
0>
1H
1B
1:
01
13
02
0)
1'
0(
#760000
0#
0!
09
06
07
1*
0H
0:
#770000
0"
1!
08
16
17
0*
0E
0B
1?
0F
1@
1G
0A
0?
14
03
1&
0'
0@
#780000
1#
1"
0!
19
18
06
07
1*
1B
1?
1:
1C
1;
#790000
0#
1!
09
16
17
0*
0?
0:
0;
0G
1D
1>
0B
1?
04
11
12
0&
1)
1(
0C
1@
#800000
0"
0!
08
06
07
1*
1B
0@
0?
1:
1C
1;
#810000
1#
1"
1!
19
18
16
17
0*
1E
0B
0:
1F
0C
0;
#820000
0!
06
07
1*
#830000
1!
16
17
0*
1G
0D
0>
1B
1:
0E
1?
14
01
02
1&
0)
0(
1C
1;
0F
#840000
0!
06
07
1*
#850000
0"
1!
08
16
17
0*
0B
1@
0?
0C
0@
0G
1D
1>
0:
1E
1?
04
11
12
0&
1)
1(
0;
1F
#860000
0#
1"
0!
09
18
06
07
1*
0E
1@
0F
#870000
1#
0"
1!
19
08
16
17
0*
1E
0@
1F
0D
1A
0>
1H
1@
1:
0?
01
13
02
0)
1'
0(
0@
#880000
0#
1"
0!
09
18
06
07
1*
0H
1B
0:
#890000
1!
16
17
0*
1G
0A
0E
1C
14
03
1&
0'
0F
#900000
0!
06
07
1*
#910000
1#
1!
19
16
17
0*
1?
1:
1;
0G
1D
0B
1@
0:
04
11
0&
1)
0C
0;
#920000
0!
06
07
1*
#930000
0"
0#
1!
08
09
16
17
0*
1B
0@
0?
1C
0D
1A
0B
0C
1?
01
13
0)
1'
1@
#940000
0!
06
07
1*
#950000
1"
1!
18
16
17
0*
1E
1B
0@
0?
1F
#960000
0!
06
07
1*
#970000
0"
1!
08
16
17
0*
0E
0B
1?
0F
1@
1G
0A
0?
14
03
1&
0'
0@
#980000
1#
1"
0!
19
18
06
07
1*
1B
1?
1:
1C
1;
#990000
1!
16
17
0*
0G
1D
1>
0B
1@
0:
1E
0?
04
11
12
0&
1)
1(
0C
0;
1F
0@
