beep/proj/simulation/qsim/beep.msim.vcd
$comment
	File created using the following command:
		vcd file beep.msim.vcd -direction
$end
$date
	Fri Sep 10 14:01:23 2021
$end
$version
	ModelSim Version 10.1d
$end
$timescale
	1ps
$end
$scope module beep_vlg_vec_tst $end
$var reg 1 ! clk $end
$var reg 1 " rst $end
$var wire 1 # beep $end
$var wire 1 $ cnt [24] $end
$var wire 1 % cnt [23] $end
$var wire 1 & cnt [22] $end
$var wire 1 ' cnt [21] $end
$var wire 1 ( cnt [20] $end
$var wire 1 ) cnt [19] $end
$var wire 1 * cnt [18] $end
$var wire 1 + cnt [17] $end
$var wire 1 , cnt [16] $end
$var wire 1 - cnt [15] $end
$var wire 1 . cnt [14] $end
$var wire 1 / cnt [13] $end
$var wire 1 0 cnt [12] $end
$var wire 1 1 cnt [11] $end
$var wire 1 2 cnt [10] $end
$var wire 1 3 cnt [9] $end
$var wire 1 4 cnt [8] $end
$var wire 1 5 cnt [7] $end
$var wire 1 6 cnt [6] $end
$var wire 1 7 cnt [5] $end
$var wire 1 8 cnt [4] $end
$var wire 1 9 cnt [3] $end
$var wire 1 : cnt [2] $end
$var wire 1 ; cnt [1] $end
$var wire 1 < cnt [0] $end
$var wire 1 = cnt_500ms [2] $end
$var wire 1 > cnt_500ms [1] $end
$var wire 1 ? cnt_500ms [0] $end
$var wire 1 @ freq_cnt [17] $end
$var wire 1 A freq_cnt [16] $end
$var wire 1 B freq_cnt [15] $end
$var wire 1 C freq_cnt [14] $end
$var wire 1 D freq_cnt [13] $end
$var wire 1 E freq_cnt [12] $end
$var wire 1 F freq_cnt [11] $end
$var wire 1 G freq_cnt [10] $end
$var wire 1 H freq_cnt [9] $end
$var wire 1 I freq_cnt [8] $end
$var wire 1 J freq_cnt [7] $end
$var wire 1 K freq_cnt [6] $end
$var wire 1 L freq_cnt [5] $end
$var wire 1 M freq_cnt [4] $end
$var wire 1 N freq_cnt [3] $end
$var wire 1 O freq_cnt [2] $end
$var wire 1 P freq_cnt [1] $end
$var wire 1 Q freq_cnt [0] $end
$var wire 1 R freq_data [17] $end
$var wire 1 S freq_data [16] $end
$var wire 1 T freq_data [15] $end
$var wire 1 U freq_data [14] $end
$var wire 1 V freq_data [13] $end
$var wire 1 W freq_data [12] $end
$var wire 1 X freq_data [11] $end
$var wire 1 Y freq_data [10] $end
$var wire 1 Z freq_data [9] $end
$var wire 1 [ freq_data [8] $end
$var wire 1 \ freq_data [7] $end
$var wire 1 ] freq_data [6] $end
$var wire 1 ^ freq_data [5] $end
$var wire 1 _ freq_data [4] $end
$var wire 1 ` freq_data [3] $end
$var wire 1 a freq_data [2] $end
$var wire 1 b freq_data [1] $end
$var wire 1 c freq_data [0] $end
$var wire 1 d sampler $end
$scope module i1 $end
$var wire 1 e gnd $end
$var wire 1 f vcc $end
$var wire 1 g unknown $end
$var tri1 1 h devclrn $end
$var tri1 1 i devpor $end
$var tri1 1 j devoe $end
$var wire 1 k cnt[0]~output_o $end
$var wire 1 l cnt[1]~output_o $end
$var wire 1 m cnt[2]~output_o $end
$var wire 1 n cnt[3]~output_o $end
$var wire 1 o cnt[4]~output_o $end
$var wire 1 p cnt[5]~output_o $end
$var wire 1 q cnt[6]~output_o $end
$var wire 1 r cnt[7]~output_o $end
$var wire 1 s cnt[8]~output_o $end
$var wire 1 t cnt[9]~output_o $end
$var wire 1 u cnt[10]~output_o $end
$var wire 1 v cnt[11]~output_o $end
$var wire 1 w cnt[12]~output_o $end
$var wire 1 x cnt[13]~output_o $end
$var wire 1 y cnt[14]~output_o $end
$var wire 1 z cnt[15]~output_o $end
$var wire 1 { cnt[16]~output_o $end
$var wire 1 | cnt[17]~output_o $end
$var wire 1 } cnt[18]~output_o $end
$var wire 1 ~ cnt[19]~output_o $end
$var wire 1 !! cnt[20]~output_o $end
$var wire 1 "! cnt[21]~output_o $end
$var wire 1 #! cnt[22]~output_o $end
$var wire 1 $! cnt[23]~output_o $end
$var wire 1 %! cnt[24]~output_o $end
$var wire 1 &! cnt_500ms[0]~output_o $end
$var wire 1 '! cnt_500ms[1]~output_o $end
$var wire 1 (! cnt_500ms[2]~output_o $end
$var wire 1 )! freq_cnt[0]~output_o $end
$var wire 1 *! freq_cnt[1]~output_o $end
$var wire 1 +! freq_cnt[2]~output_o $end
$var wire 1 ,! freq_cnt[3]~output_o $end
$var wire 1 -! freq_cnt[4]~output_o $end
$var wire 1 .! freq_cnt[5]~output_o $end
$var wire 1 /! freq_cnt[6]~output_o $end
$var wire 1 0! freq_cnt[7]~output_o $end
$var wire 1 1! freq_cnt[8]~output_o $end
$var wire 1 2! freq_cnt[9]~output_o $end
$var wire 1 3! freq_cnt[10]~output_o $end
$var wire 1 4! freq_cnt[11]~output_o $end
$var wire 1 5! freq_cnt[12]~output_o $end
$var wire 1 6! freq_cnt[13]~output_o $end
$var wire 1 7! freq_cnt[14]~output_o $end
$var wire 1 8! freq_cnt[15]~output_o $end
$var wire 1 9! freq_cnt[16]~output_o $end
$var wire 1 :! freq_cnt[17]~output_o $end
$var wire 1 ;! freq_data[0]~output_o $end
$var wire 1 <! freq_data[1]~output_o $end
$var wire 1 =! freq_data[2]~output_o $end
$var wire 1 >! freq_data[3]~output_o $end
$var wire 1 ?! freq_data[4]~output_o $end
$var wire 1 @! freq_data[5]~output_o $end
$var wire 1 A! freq_data[6]~output_o $end
$var wire 1 B! freq_data[7]~output_o $end
$var wire 1 C! freq_data[8]~output_o $end
$var wire 1 D! freq_data[9]~output_o $end
$var wire 1 E! freq_data[10]~output_o $end
$var wire 1 F! freq_data[11]~output_o $end
$var wire 1 G! freq_data[12]~output_o $end
$var wire 1 H! freq_data[13]~output_o $end
$var wire 1 I! freq_data[14]~output_o $end
$var wire 1 J! freq_data[15]~output_o $end
$var wire 1 K! freq_data[16]~output_o $end
$var wire 1 L! freq_data[17]~output_o $end
$var wire 1 M! beep~output_o $end
$var wire 1 N! clk~input_o $end
$var wire 1 O! clk~inputclkctrl_outclk $end
$var wire 1 P! Add0~0_combout $end
$var wire 1 Q! rst~input_o $end
$var wire 1 R! rst~inputclkctrl_outclk $end
$var wire 1 S! cnt[0]~reg0_q $end
$var wire 1 T! Add0~1 $end
$var wire 1 U! Add0~2_combout $end
$var wire 1 V! cnt[1]~reg0_q $end
$var wire 1 W! Add0~3 $end
$var wire 1 X! Add0~4_combout $end
$var wire 1 Y! cnt[2]~reg0_q $end
$var wire 1 Z! Add0~5 $end
$var wire 1 [! Add0~6_combout $end
$var wire 1 \! cnt[3]~reg0_q $end
$var wire 1 ]! Add0~7 $end
$var wire 1 ^! Add0~8_combout $end
$var wire 1 _! cnt[4]~reg0_q $end
$var wire 1 `! Add0~9 $end
$var wire 1 a! Add0~10_combout $end
$var wire 1 b! cnt[5]~reg0_q $end
$var wire 1 c! Add0~11 $end
$var wire 1 d! Add0~13 $end
$var wire 1 e! Add0~14_combout $end
$var wire 1 f! cnt[7]~reg0_q $end
$var wire 1 g! Add0~15 $end
$var wire 1 h! Add0~16_combout $end
$var wire 1 i! cnt[8]~reg0_q $end
$var wire 1 j! Equal0~5_combout $end
$var wire 1 k! Equal0~6_combout $end
$var wire 1 l! Add0~17 $end
$var wire 1 m! Add0~18_combout $end
$var wire 1 n! cnt[9]~reg0_q $end
$var wire 1 o! Add0~19 $end
$var wire 1 p! Add0~20_combout $end
$var wire 1 q! cnt[10]~reg0_q $end
$var wire 1 r! Add0~21 $end
$var wire 1 s! Add0~22_combout $end
$var wire 1 t! cnt~1_combout $end
$var wire 1 u! cnt[11]~reg0_q $end
$var wire 1 v! Add0~23 $end
$var wire 1 w! Add0~24_combout $end
$var wire 1 x! cnt~2_combout $end
$var wire 1 y! cnt[12]~reg0_q $end
$var wire 1 z! Add0~25 $end
$var wire 1 {! Add0~26_combout $end
$var wire 1 |! cnt~3_combout $end
$var wire 1 }! cnt[13]~reg0_q $end
$var wire 1 ~! Add0~27 $end
$var wire 1 !" Add0~28_combout $end
$var wire 1 "" cnt~4_combout $end
$var wire 1 #" cnt[14]~reg0_q $end
$var wire 1 $" Add0~29 $end
$var wire 1 %" Add0~30_combout $end
$var wire 1 &" cnt[15]~reg0_q $end
$var wire 1 '" Add0~31 $end
$var wire 1 (" Add0~32_combout $end
$var wire 1 )" cnt~5_combout $end
$var wire 1 *" cnt[16]~reg0_q $end
$var wire 1 +" Add0~33 $end
$var wire 1 ," Add0~34_combout $end
$var wire 1 -" cnt[17]~reg0_q $end
$var wire 1 ." Add0~35 $end
$var wire 1 /" Add0~36_combout $end
$var wire 1 0" cnt~6_combout $end
$var wire 1 1" cnt[18]~reg0_q $end
$var wire 1 2" Add0~37 $end
$var wire 1 3" Add0~38_combout $end
$var wire 1 4" cnt~7_combout $end
$var wire 1 5" cnt[19]~reg0_q $end
$var wire 1 6" Add0~39 $end
$var wire 1 7" Add0~40_combout $end
$var wire 1 8" cnt~8_combout $end
$var wire 1 9" cnt[20]~reg0_q $end
$var wire 1 :" Add0~41 $end
$var wire 1 ;" Add0~42_combout $end
$var wire 1 <" cnt~9_combout $end
$var wire 1 =" cnt[21]~reg0_q $end
$var wire 1 >" Add0~43 $end
$var wire 1 ?" Add0~44_combout $end
$var wire 1 @" cnt~10_combout $end
$var wire 1 A" cnt[22]~reg0_q $end
$var wire 1 B" Add0~45 $end
$var wire 1 C" Add0~46_combout $end
$var wire 1 D" cnt[23]~reg0_q $end
$var wire 1 E" Add0~47 $end
$var wire 1 F" Add0~48_combout $end
$var wire 1 G" cnt~11_combout $end
$var wire 1 H" cnt[24]~reg0_q $end
$var wire 1 I" Equal0~0_combout $end
$var wire 1 J" Equal0~3_combout $end
$var wire 1 K" Equal0~1_combout $end
$var wire 1 L" Equal0~2_combout $end
$var wire 1 M" Equal0~4_combout $end
$var wire 1 N" Equal0~7_combout $end
$var wire 1 O" Add0~12_combout $end
$var wire 1 P" cnt~0_combout $end
$var wire 1 Q" cnt[6]~reg0_q $end
$var wire 1 R" cnt_500ms[1]~1_combout $end
$var wire 1 S" cnt_500ms[1]~reg0_q $end
$var wire 1 T" cnt_500ms[2]~2_combout $end
$var wire 1 U" cnt_500ms[2]~reg0_q $end
$var wire 1 V" cnt_500ms[0]~0_combout $end
$var wire 1 W" cnt_500ms[0]~reg0_q $end
$var wire 1 X" freq_cnt[0]~18_combout $end
$var wire 1 Y" freq_cnt[0]~19 $end
$var wire 1 Z" freq_cnt[1]~20_combout $end
$var wire 1 [" freq_cnt[1]~reg0_q $end
$var wire 1 \" freq_cnt[1]~21 $end
$var wire 1 ]" freq_cnt[2]~22_combout $end
$var wire 1 ^" freq_cnt[2]~reg0_q $end
$var wire 1 _" freq_cnt[2]~23 $end
$var wire 1 `" freq_cnt[3]~24_combout $end
$var wire 1 a" freq_cnt[3]~reg0_q $end
$var wire 1 b" freq_cnt[3]~25 $end
$var wire 1 c" freq_cnt[4]~26_combout $end
$var wire 1 d" freq_cnt[4]~reg0_q $end
$var wire 1 e" freq_cnt[4]~27 $end
$var wire 1 f" freq_cnt[5]~28_combout $end
$var wire 1 g" freq_cnt[5]~reg0_q $end
$var wire 1 h" freq_cnt[5]~29 $end
$var wire 1 i" freq_cnt[6]~30_combout $end
$var wire 1 j" freq_cnt[6]~reg0_q $end
$var wire 1 k" freq_cnt[6]~31 $end
$var wire 1 l" freq_cnt[7]~32_combout $end
$var wire 1 m" freq_cnt[7]~reg0_q $end
$var wire 1 n" freq_cnt[7]~33 $end
$var wire 1 o" freq_cnt[8]~34_combout $end
$var wire 1 p" freq_cnt[8]~reg0_q $end
$var wire 1 q" freq_cnt[8]~35 $end
$var wire 1 r" freq_cnt[9]~36_combout $end
$var wire 1 s" freq_cnt[9]~reg0_q $end
$var wire 1 t" freq_cnt[9]~37 $end
$var wire 1 u" freq_cnt[10]~38_combout $end
$var wire 1 v" freq_cnt[10]~reg0_q $end
$var wire 1 w" freq_cnt[10]~39 $end
$var wire 1 x" freq_cnt[11]~40_combout $end
$var wire 1 y" freq_cnt[11]~reg0_q $end
$var wire 1 z" Decoder0~2_combout $end
$var wire 1 {" freq_data[11]~reg0_q $end
$var wire 1 |" Decoder1~0_combout $end
$var wire 1 }" freq_data[15]~reg0_q $end
$var wire 1 ~" Equal2~7_combout $end
$var wire 1 !# WideOr4~0_combout $end
$var wire 1 "# freq_data[9]~reg0_q $end
$var wire 1 ## freq_data~2_combout $end
$var wire 1 $# freq_data[8]~reg0_q $end
$var wire 1 %# Equal2~6_combout $end
$var wire 1 &# WideOr1~0_combout $end
$var wire 1 '# freq_data[14]~reg0_q $end
$var wire 1 (# freq_cnt[11]~41 $end
$var wire 1 )# freq_cnt[12]~42_combout $end
$var wire 1 *# freq_cnt[12]~reg0_q $end
$var wire 1 +# freq_cnt[12]~43 $end
$var wire 1 ,# freq_cnt[13]~44_combout $end
$var wire 1 -# freq_cnt[13]~reg0_q $end
$var wire 1 .# freq_cnt[13]~45 $end
$var wire 1 /# freq_cnt[14]~46_combout $end
$var wire 1 0# freq_cnt[14]~reg0_q $end
$var wire 1 1# freq_cnt[14]~47 $end
$var wire 1 2# freq_cnt[15]~48_combout $end
$var wire 1 3# freq_cnt[15]~reg0_q $end
$var wire 1 4# Equal2~9_combout $end
$var wire 1 5# WideOr3~0_combout $end
$var wire 1 6# freq_data[12]~reg0_q $end
$var wire 1 7# WideOr2~0_combout $end
$var wire 1 8# freq_data[13]~reg0_q $end
$var wire 1 9# Equal2~8_combout $end
$var wire 1 :# Equal2~10_combout $end
$var wire 1 ;# freq_cnt[15]~49 $end
$var wire 1 <# freq_cnt[16]~50_combout $end
$var wire 1 =# freq_cnt[16]~reg0_q $end
$var wire 1 ># freq_cnt[16]~51 $end
$var wire 1 ?# freq_cnt[17]~52_combout $end
$var wire 1 @# freq_cnt[17]~reg0_q $end
$var wire 1 A# WideOr0~0_combout $end
$var wire 1 B# freq_data[17]~reg0_q $end
$var wire 1 C# Equal2~5_combout $end
$var wire 1 D# freq_data~0_combout $end
$var wire 1 E# freq_data[4]~reg0_q $end
$var wire 1 F# Equal2~2_combout $end
$var wire 1 G# WideOr6~0_combout $end
$var wire 1 H# freq_data[3]~reg0_q $end
$var wire 1 I# WideOr7~0_combout $end
$var wire 1 J# freq_data[2]~reg0_q $end
$var wire 1 K# Equal2~1_combout $end
$var wire 1 L# freq_data~1_combout $end
$var wire 1 M# freq_data[6]~reg0_q $end
$var wire 1 N# Decoder0~1_combout $end
$var wire 1 O# freq_data[7]~reg0_q $end
$var wire 1 P# Equal2~3_combout $end
$var wire 1 Q# WideOr8~0_combout $end
$var wire 1 R# freq_data[0]~reg0_q $end
$var wire 1 S# Decoder0~0_combout $end
$var wire 1 T# freq_data[1]~reg0_q $end
$var wire 1 U# Equal2~0_combout $end
$var wire 1 V# Equal2~4_combout $end
$var wire 1 W# always2~0_combout $end
$var wire 1 X# freq_cnt[0]~reg0_q $end
$var wire 1 Y# LessThan0~17_combout $end
$var wire 1 Z# LessThan0~19_combout $end
$var wire 1 [# LessThan0~18_combout $end
$var wire 1 \# LessThan0~20_combout $end
$var wire 1 ]# LessThan0~9_combout $end
$var wire 1 ^# LessThan0~15_combout $end
$var wire 1 _# LessThan0~16_combout $end
$var wire 1 `# LessThan0~13_combout $end
$var wire 1 a# LessThan0~8_combout $end
$var wire 1 b# LessThan0~10_combout $end
$var wire 1 c# LessThan0~14_combout $end
$var wire 1 d# LessThan0~21_combout $end
$var wire 1 e# LessThan0~11_combout $end
$var wire 1 f# LessThan0~2_combout $end
$var wire 1 g# LessThan0~3_combout $end
$var wire 1 h# LessThan0~4_combout $end
$var wire 1 i# LessThan0~22_combout $end
$var wire 1 j# LessThan0~5_combout $end
$var wire 1 k# LessThan0~6_combout $end
$var wire 1 l# LessThan0~7_combout $end
$var wire 1 m# LessThan0~12_combout $end
$var wire 1 n# LessThan0~23_combout $end
$var wire 1 o# LessThan0~24_combout $end
$var wire 1 p# beep~reg0_q $end
$upscope $end
$upscope $end
$enddefinitions $end
#0
$dumpvars
0!
1"
0#
0<
0;
0:
09
08
07
06
05
04
03
02
01
00
0/
0.
0-
0,
0+
0*
0)
0(
0'
0&
0%
0$
0?
0>
0=
0Q
0P
0O
0N
0M
0L
0K
0J
0I
0H
0G
0F
0E
0D
0C
0B
0A
0@
1c
1b
1a
0`
1_
1^
1]
0\
1[
0Z
0Y
1X
0W
1V
1U
1T
0S
1R
xd
0e
1f
xg
1h
1i
1j
0k
0l
0m
0n
0o
0p
0q
0r
0s
0t
0u
0v
0w
0x
0y
0z
0{
0|
0}
0~
0!!
0"!
0#!
0$!
0%!
0&!
0'!
0(!
0)!
0*!
0+!
0,!
0-!
0.!
0/!
00!
01!
02!
03!
04!
05!
06!
07!
08!
09!
0:!
1;!
1<!
1=!
0>!
1?!
1@!
1A!
0B!
1C!
0D!
0E!
1F!
0G!
1H!
1I!
1J!
0K!
1L!
0M!
0N!
0O!
1P!
1Q!
1R!
0S!
0T!
0U!
0V!
1W!
0X!
0Y!
0Z!
0[!
0\!
1]!
0^!
0_!
0`!
0a!
0b!
1c!
0d!
0e!
0f!
1g!
0h!
0i!
0j!
0k!
0l!
0m!
0n!
1o!
0p!
0q!
0r!
0s!
0t!
0u!
1v!
0w!
0x!
0y!
0z!
0{!
0|!
0}!
1~!
0!"
0""
0#"
0$"
0%"
0&"
1'"
0("
0)"
0*"
0+"
0,"
0-"
1."
0/"
00"
01"
02"
03"
04"
05"
16"
07"
08"
09"
0:"
0;"
0<"
0="
1>"
0?"
0@"
0A"
0B"
0C"
0D"
1E"
0F"
0G"
0H"
0I"
0J"
0K"
0L"
0M"
0N"
0O"
0P"
0Q"
0R"
0S"
0T"
0U"
0V"
0W"
1X"
0Y"
0Z"
0["
1\"
0]"
0^"
0_"
0`"
0a"
1b"
0c"
0d"
0e"
0f"
0g"
1h"
0i"
0j"
0k"
0l"
0m"
1n"
0o"
0p"
0q"
0r"
0s"
1t"
0u"
0v"
0w"
0x"
0y"
0z"
0{"
0|"
0}"
0~"
0!#
0"#
0##
0$#
0%#
0&#
0'#
1(#
0)#
0*#
0+#
0,#
0-#
1.#
0/#
00#
01#
02#
03#
04#
05#
06#
07#
08#
09#
0:#
1;#
0<#
0=#
0>#
0?#
0@#
0A#
0B#
0C#
0D#
0E#
0F#
0G#
0H#
0I#
0J#
0K#
0L#
0M#
0N#
0O#
0P#
0Q#
0R#
0S#
0T#
0U#
0V#
0W#
0X#
1Y#
0Z#
0[#
0\#
0]#
0^#
0_#
0`#
0a#
0b#
0c#
1d#
0e#
1f#
1g#
0h#
0i#
0j#
0k#
1l#
0m#
1n#
0o#
0p#
$end
#1000000
1!
1N!
1O!
0d
1X#
1S!
1Y"
0X"
1T!
0P!
1)!
1k
1Q
1<
1Z"
1U!
#2000000
0!
0N!
0O!
1d
#3000000
1!
1N!
1O!
0d
0X#
1["
1V!
0S!
0Y"
1X"
0\"
0Z"
0W!
0U!
0T!
1P!
0)!
1*!
1l
0k
0Q
1P
1;
0<
1\"
1Z"
1]"
1X!
1W!
1U!
0]"
0X!
#4000000
0!
0N!
0O!
1d
#5000000
1!
1N!
1O!
0d
1X#
1S!
0f#
1U#
1Y"
0X"
1T!
0P!
1)!
1k
1Q
1<
0g#
0\"
0Z"
0W!
0U!
1]"
1X!
#6000000
0!
0N!
0O!
1d
#7000000
1!
1N!
1O!
0d
0X#
1^"
0["
1Y!
0V!
0S!
1f#
0U#
0Y"
1X"
1K#
1_"
0]"
1\"
1Z"
1Z!
0X!
1W!
1U!
0T!
1P!
0)!
1+!
0*!
1m
0l
0k
0Q
1O
0P
1:
0;
0<
0Z"
1`"
0_"
1]"
1[!
0Z!
1X!
0U!
0`"
0[!
#8000000
0!
0N!
0O!
1d
#9000000
1!
1N!
1O!
0d
1X#
1S!
1Y"
0X"
1T!
0P!
1)!
1k
1Q
1<
1Z"
1U!
#10000000
0!
0N!
0O!
1d
#11000000
1!
1N!
1O!
0d
0X#
1["
1V!
0S!
0Y"
1X"
0\"
0Z"
0W!
0U!
0T!
1P!
0)!
1*!
1l
0k
0Q
1P
1;
0<
1\"
1Z"
1_"
0]"
1Z!
0X!
1W!
1U!
0_"
1]"
1`"
1[!
0Z!
1X!
0`"
0[!
#12000000
0!
0N!
0O!
1d
#13000000
1!
1N!
1O!
0d
1X#
1S!
0f#
1U#
1Y"
0X"
1T!
0P!
1)!
1k
1Q
1<
0\"
0Z"
0W!
0U!
1_"
0]"
1Z!
0X!
1`"
1[!
#14000000
0!
0N!
0O!
1d
#15000000
1!
1N!
1O!
0d
0X#
1a"
0^"
0["
1\!
0Y!
0V!
0S!
1f#
0U#
0Y"
1X"
1h#
0K#
0b"
0`"
0_"
1]"
1\"
1Z"
0]!
0[!
0Z!
1X!
1W!
1U!
0T!
1P!
0)!
1,!
0+!
0*!
1n
0m
0l
0k
0Q
1N
0O
0P
19
0:
0;
0<
1g#
0Z"
1c"
1b"
1`"
0]"
1^!
1]!
1[!
0X!
0U!
0h#
0c"
0^!
#16000000
0!
0N!
0O!
1d
#17000000
1!
1N!
1O!
0d
1X#
1S!
1Y"
0X"
1T!
0P!
1)!
1k
1Q
1<
1Z"
1U!
#18000000
0!
0N!
0O!
1d
#19000000
1!
1N!
1O!
0d
0X#
1["
1V!
0S!
0Y"
1X"
0\"
0Z"
0W!
0U!
0T!
1P!
0)!
1*!
1l
0k
0Q
1P
1;
0<
1\"
1Z"
1]"
1X!
1W!
1U!
0]"
0X!
#20000000
0!
0N!
0O!
1d
#21000000
1!
1N!
1O!
0d
1X#
1S!
0f#
1U#
1Y"
0X"
1T!
0P!
1)!
1k
1Q
1<
0g#
0\"
0Z"
0W!
0U!
1h#
1]"
1X!
#22000000
0!
0N!
0O!
1d
#23000000
1!
1N!
1O!
0d
0X#
1^"
0["
1Y!
0V!
0S!
1f#
0U#
0Y"
1X"
1_"
0]"
1\"
1Z"
1Z!
0X!
1W!
1U!
0T!
1P!
0)!
1+!
0*!
1m
0l
0k
0Q
1O
0P
1:
0;
0<
0Z"
0b"
0`"
0_"
1]"
0]!
0[!
0Z!
1X!
0U!
1c"
1b"
1`"
1^!
1]!
1[!
0c"
0^!
#24000000
0!
0N!
0O!
1d
#25000000
1!
1N!
1O!
0d
1X#
1S!
1Y"
0X"
1T!
0P!
1)!
1k
1Q
1<
1Z"
1U!
#26000000
0!
0N!
0O!
1d
#27000000
1!
1N!
1O!
0d
0X#
1["
1V!
0S!
0Y"
1X"
0\"
0Z"
0W!
0U!
0T!
1P!
0)!
1*!
1l
0k
0Q
1P
1;
0<
1\"
1Z"
1_"
0]"
1Z!
0X!
1W!
1U!
0_"
1]"
0b"
0`"
0]!
0[!
0Z!
1X!
1b"
1`"
1c"
1^!
1]!
1[!
0c"
0^!
#28000000
0!
0N!
0O!
1d
#29000000
1!
1N!
1O!
0d
1X#
1S!
0f#
1U#
1Y"
0X"
1T!
0P!
1)!
1k
1Q
1<
0\"
0Z"
0W!
0U!
1_"
0]"
1Z!
0X!
0b"
0`"
0]!
0[!
1c"
1^!
#30000000
0!
0N!
0O!
1d
#31000000
1!
1N!
1O!
0d
0X#
1d"
0a"
0^"
0["
1_!
0\!
0Y!
0V!
0S!
1f#
0U#
0Y"
1X"
1i#
1e"
0c"
0h#
1b"
1`"
0_"
1]"
1\"
1Z"
1`!
0^!
1]!
1[!
0Z!
1X!
1W!
1U!
0T!
1P!
0)!
1-!
0,!
0+!
0*!
1o
0n
0m
0l
0k
0Q
1M
0N
0O
0P
18
09
0:
0;
0<
1g#
0Z"
1f"
0i#
0e"
1c"
0`"
0]"
1a!
0`!
1^!
0[!
0X!
0U!
0f"
0a!
#32000000
0!
0N!
0O!
1d
#33000000
1!
1N!
1O!
0d
1X#
1S!
1Y"
0X"
1T!
0P!
1)!
1k
1Q
1<
1Z"
1U!
#34000000
0!
0N!
0O!
1d
#35000000
1!
1N!
1O!
0d
0X#
1["
1V!
0S!
0Y"
1X"
0\"
0Z"
0W!
0U!
0T!
1P!
0)!
1*!
1l
0k
0Q
1P
1;
0<
1\"
1Z"
1]"
1X!
1W!
1U!
0]"
0X!
#36000000
0!
0N!
0O!
1d
#37000000
1!
1N!
1O!
0d
1X#
1S!
0f#
1U#
1Y"
0X"
1T!
0P!
1)!
1k
1Q
1<
0g#
0\"
0Z"
0W!
0U!
1]"
1X!
#38000000
0!
0N!
0O!
1d
#39000000
1!
1N!
1O!
0d
0X#
1^"
0["
1Y!
0V!
0S!
1f#
0U#
0Y"
1X"
1K#
1_"
0]"
1\"
1Z"
1Z!
0X!
1W!
1U!
0T!
1P!
0)!
1+!
0*!
1m
0l
0k
0Q
1O
0P
1:
0;
0<
0Z"
1`"
0_"
1]"
1[!
0Z!
1X!
0U!
0`"
0[!
#40000000
0!
0N!
0O!
1d
#41000000
1!
1N!
1O!
0d
1X#
1S!
1Y"
0X"
1T!
0P!
1)!
1k
1Q
1<
1Z"
1U!
#42000000
0!
0N!
0O!
1d
#43000000
1!
1N!
1O!
0d
0X#
1["
1V!
0S!
0Y"
1X"
0\"
0Z"
0W!
0U!
0T!
1P!
0)!
1*!
1l
0k
0Q
1P
1;
0<
1\"
1Z"
1_"
0]"
1Z!
0X!
1W!
1U!
0_"
1]"
1`"
1[!
0Z!
1X!
0`"
0[!
#44000000
0!
0N!
0O!
1d
#45000000
1!
1N!
1O!
0d
1X#
1S!
0f#
1U#
1Y"
0X"
1T!
0P!
1)!
1k
1Q
1<
0\"
0Z"
0W!
0U!
1_"
0]"
1Z!
0X!
1`"
1[!
#46000000
0!
0N!
0O!
1d
#47000000
1!
1N!
1O!
0d
0X#
1a"
0^"
0["
1\!
0Y!
0V!
0S!
1f#
0U#
0Y"
1X"
1h#
0K#
0b"
0`"
0_"
1]"
1\"
1Z"
0]!
0[!
0Z!
1X!
1W!
1U!
0T!
1P!
0)!
1,!
0+!
0*!
1n
0m
0l
0k
0Q
1N
0O
0P
19
0:
0;
0<
1g#
0Z"
1i#
1e"
0c"
1b"
1`"
0]"
1`!
0^!
1]!
1[!
0X!
0U!
0h#
1f"
0e"
1c"
1a!
0`!
1^!
0i#
0f"
0a!
#48000000
0!
0N!
0O!
1d
#49000000
1!
1N!
1O!
0d
1X#
1S!
1Y"
0X"
1T!
0P!
1)!
1k
1Q
1<
1Z"
1U!
#50000000
0!
0N!
0O!
1d
#51000000
1!
1N!
1O!
0d
0X#
1["
1V!
0S!
0Y"
1X"
0\"
0Z"
0W!
0U!
0T!
1P!
0)!
1*!
1l
0k
0Q
1P
1;
0<
1\"
1Z"
1]"
1X!
1W!
1U!
0]"
0X!
#52000000
0!
0N!
0O!
1d
#53000000
1!
1N!
1O!
0d
1X#
1S!
0f#
1U#
1Y"
0X"
1T!
0P!
1)!
1k
1Q
1<
0g#
0\"
0Z"
0W!
0U!
1h#
1]"
1X!
1i#
#54000000
0!
0N!
0O!
1d
#55000000
1!
1N!
1O!
0d
0X#
1^"
0["
1Y!
0V!
0S!
1f#
0U#
0Y"
1X"
1_"
0]"
1\"
1Z"
1Z!
0X!
1W!
1U!
0T!
1P!
0)!
1+!
0*!
1m
0l
0k
0Q
1O
0P
1:
0;
0<
0Z"
0b"
0`"
0_"
1]"
0]!
0[!
0Z!
1X!
0U!
1e"
0c"
1b"
1`"
1`!
0^!
1]!
1[!
1f"
0e"
1c"
1a!
0`!
1^!
0f"
0a!
#56000000
0!
0N!
0O!
1d
#57000000
1!
1N!
1O!
0d
1X#
1S!
1Y"
0X"
1T!
0P!
1)!
1k
1Q
1<
1Z"
1U!
#58000000
0!
0N!
0O!
1d
#59000000
1!
1N!
1O!
0d
0X#
1["
1V!
0S!
0Y"
1X"
0\"
0Z"
1k!
0W!
0U!
0T!
1P!
0)!
1*!
1l
0k
0Q
1P
1;
0<
1\"
1Z"
1_"
0]"
1Z!
0X!
1W!
1U!
0_"
1]"
0b"
0`"
0]!
0[!
0Z!
1X!
1b"
1`"
1e"
0c"
1`!
0^!
1]!
1[!
0e"
1c"
1f"
1a!
0`!
1^!
0f"
0a!
#60000000
0!
0N!
0O!
1d
#61000000
1!
1N!
1O!
0d
1X#
1S!
0f#
1U#
1Y"
0X"
1T!
0P!
1)!
1k
1Q
1<
0\"
0Z"
0W!
0U!
1_"
0]"
1Z!
0X!
0b"
0`"
0]!
0[!
1e"
0c"
1`!
0^!
1f"
1a!
#62000000
0!
0N!
0O!
1d
#63000000
1!
1N!
1O!
0d
0X#
1g"
0d"
0a"
0^"
0["
1b!
0_!
0\!
0Y!
0V!
0S!
1f#
0U#
0Y"
1X"
1j#
0h"
0f"
0i#
0e"
1c"
0h#
1b"
1`"
0_"
1]"
1\"
1Z"
1j!
0c!
0a!
0k!
0`!
1^!
1]!
1[!
0Z!
1X!
1W!
1U!
0T!
1P!
0)!
1.!
0-!
0,!
0+!
0*!
1p
0o
0n
0m
0l
0k
0Q
1L
0M
0N
0O
0P
17
08
09
0:
0;
0<
1g#
0Z"
1k#
1i"
0j#
1h"
1f"
0c"
0`"
0]"
1O"
1c!
1a!
0^!
0[!
0X!
0U!
0k#
0i"
1P"
0O"
0P"
#64000000
0!
0N!
0O!
1d
#65000000
1!
1N!
1O!
0d
1X#
1S!
1Y"
0X"
1T!
0P!
1)!
1k
1Q
1<
1Z"
1U!
#66000000
0!
0N!
0O!
1d
#67000000
1!
1N!
1O!
0d
0X#
1["
1V!
0S!
0Y"
1X"
0\"
0Z"
0W!
0U!
0T!
1P!
0)!
1*!
1l
0k
0Q
1P
1;
0<
1\"
1Z"
1]"
1X!
1W!
1U!
0]"
0X!
#68000000
0!
0N!
0O!
1d
