WAVE/PWM/proj/simulation/qsim/PWM.msim.vcd
$comment
	File created using the following command:
		vcd file PWM.msim.vcd -direction
$end
$date
	Thu Aug 26 15:38:02 2021
$end
$version
	ModelSim Version 10.1d
$end
$timescale
	1ps
$end
$scope module PWM_vlg_vec_tst $end
$var reg 1 ! clk $end
$var reg 1 " rst $end
$var wire 1 # cnt [3] $end
$var wire 1 $ cnt [2] $end
$var wire 1 % cnt [1] $end
$var wire 1 & cnt [0] $end
$var wire 1 ' out $end
$var wire 1 ( sampler $end
$scope module i1 $end
$var wire 1 ) gnd $end
$var wire 1 * vcc $end
$var wire 1 + unknown $end
$var tri1 1 , devclrn $end
$var tri1 1 - devpor $end
$var tri1 1 . devoe $end
$var wire 1 / out~output_o $end
$var wire 1 0 cnt[0]~output_o $end
$var wire 1 1 cnt[1]~output_o $end
$var wire 1 2 cnt[2]~output_o $end
$var wire 1 3 cnt[3]~output_o $end
$var wire 1 4 clk~input_o $end
$var wire 1 5 clk~inputclkctrl_outclk $end
$var wire 1 6 rst~input_o $end
$var wire 1 7 cnt~4_combout $end
$var wire 1 8 cnt[0]~reg0_q $end
$var wire 1 9 cnt~5_combout $end
$var wire 1 : cnt[1]~reg0_q $end
$var wire 1 ; cnt~7_combout $end
$var wire 1 < cnt[2]~reg0_q $end
$var wire 1 = Add0~0_combout $end
$var wire 1 > cnt~6_combout $end
$var wire 1 ? cnt[3]~reg0_q $end
$var wire 1 @ LessThan0~0_combout $end
$var wire 1 A out~reg0_q $end
$upscope $end
$upscope $end
$enddefinitions $end
#0
$dumpvars
0!
1"
0&
0%
0$
0#
0'
x(
0)
1*
x+
1,
1-
1.
0/
00
01
02
03
04
05
16
17
08
09
0:
0;
0<
0=
0>
0?
1@
0A
$end
#10000
1!
14
15
0(
1A
18
19
07
1/
10
1'
1&
#20000
0!
04
05
1(
#30000
1!
14
15
0(
1:
08
17
11
00
1%
0&
#40000
0!
04
05
1(
#50000
1!
14
15
0(
18
1=
1;
09
07
10
1&
#60000
0!
04
05
1(
#70000
1!
14
15
0(
1<
0:
08
1>
0=
17
12
01
00
1$
0%
0&
0>
#80000
0!
04
05
1(
#90000
1!
14
15
0(
18
19
07
10
1&
#100000
0!
04
05
1(
#110000
1!
14
15
0(
1:
08
17
11
00
1%
0&
#120000
0!
04
05
1(
#130000
1!
14
15
0(
18
1=
0;
09
07
10
1&
1>
#140000
0!
04
05
1(
#150000
1!
14
15
0(
1?
0<
0:
08
0=
17
13
02
01
00
1#
0$
0%
0&
#160000
0!
04
05
1(
#170000
1!
14
15
0(
18
19
07
10
1&
#180000
0!
04
05
1(
#190000
1!
14
15
0(
1:
08
17
11
00
1%
0&
#200000
0!
04
05
1(
#210000
1!
14
15
0(
18
1=
1;
09
07
10
1&
#220000
0!
04
05
1(
#230000
1!
14
15
0(
1<
0:
08
0@
0>
0=
17
12
01
00
1$
0%
0&
1>
#240000
0!
04
05
1(
#250000
1!
14
15
0(
0A
18
19
07
0/
10
0'
1&
#260000
0!
04
05
1(
#270000
1!
14
15
0(
1:
08
17
11
00
1%
0&
#280000
0!
04
05
1(
#290000
1!
14
15
0(
18
1=
0;
09
07
10
1&
0>
#300000
0!
04
05
1(
#310000
1!
14
15
0(
0?
0<
0:
08
1@
0=
17
03
02
01
00
0#
0$
0%
0&
#320000
0!
04
05
1(
#330000
1!
14
15
0(
1A
18
19
07
1/
10
1'
1&
#340000
0!
04
05
1(
#350000
1!
14
15
0(
1:
08
17
11
00
1%
0&
#360000
0!
04
05
1(
#370000
1!
14
15
0(
18
1=
1;
09
07
10
1&
#380000
0!
04
05
1(
#390000
1!
14
15
0(
1<
0:
08
1>
0=
17
12
01
00
1$
0%
0&
0>
#400000
0!
04
05
1(
#410000
1!
14
15
0(
18
19
07
10
1&
#420000
0!
04
05
1(
#430000
1!
14
15
0(
1:
08
17
11
00
1%
0&
#440000
0!
04
05
1(
#450000
1!
14
15
0(
18
1=
0;
09
07
10
1&
1>
#460000
0!
04
05
1(
#470000
1!
14
15
0(
1?
0<
0:
08
0=
17
13
02
01
00
1#
0$
0%
0&
#480000
0!
04
05
1(
#490000
1!
14
15
0(
18
19
07
10
1&
#500000
0!
04
05
1(
#510000
1!
14
15
0(
1:
08
17
11
00
1%
0&
#520000
0!
04
05
1(
#530000
1!
14
15
0(
18
1=
1;
09
07
10
1&
#540000
0!
04
05
1(
#550000
1!
14
15
0(
1<
0:
08
0@
0>
0=
17
12
01
00
1$
0%
0&
1>
#560000
0!
04
05
1(
#570000
1!
14
15
0(
0A
18
19
07
0/
10
0'
1&
#580000
0!
04
05
1(
#590000
1!
14
15
0(
1:
08
17
11
00
1%
0&
#600000
0!
04
05
1(
#610000
1!
14
15
0(
18
1=
0;
09
07
10
1&
0>
#620000
0!
04
05
1(
#630000
1!
14
15
0(
0?
0<
0:
08
1@
0=
17
03
02
01
00
0#
0$
0%
0&
#640000
0!
04
05
1(
#650000
1!
14
15
0(
1A
18
19
07
1/
10
1'
1&
#660000
0!
04
05
1(
#670000
1!
14
15
0(
1:
08
17
11
00
1%
0&
#680000
0!
04
05
1(
#690000
1!
14
15
0(
18
1=
1;
09
07
10
1&
#700000
0!
04
05
1(
#710000
1!
14
15
0(
1<
0:
08
1>
0=
17
12
01
00
1$
0%
0&
0>
#720000
0!
04
05
1(
#730000
1!
14
15
0(
18
19
07
10
1&
#740000
0!
04
05
1(
#750000
1!
14
15
0(
1:
08
17
11
00
1%
0&
#760000
0!
04
05
1(
#770000
1!
14
15
0(
18
1=
0;
09
07
10
1&
1>
#780000
0!
04
05
1(
#790000
1!
14
15
0(
1?
0<
0:
08
0=
17
13
02
01
00
1#
0$
0%
0&
#800000
0!
04
05
1(
#810000
1!
14
15
0(
18
19
07
10
1&
#820000
0!
04
05
1(
#830000
1!
14
15
0(
1:
08
17
11
00
1%
0&
#840000
0!
04
05
1(
#850000
1!
14
15
0(
18
1=
1;
09
07
10
1&
#860000
0!
04
05
1(
#870000
1!
14
15
0(
1<
0:
08
0@
0>
0=
17
12
01
00
1$
0%
0&
1>
#880000
0!
04
05
1(
#890000
1!
14
15
0(
0A
18
19
07
0/
10
0'
1&
#900000
0!
04
05
1(
#910000
1!
14
15
0(
1:
08
17
11
00
1%
0&
#920000
0!
04
05
1(
#930000
1!
14
15
0(
18
1=
0;
09
07
10
1&
0>
#940000
0!
04
05
1(
#950000
1!
14
15
0(
0?
0<
0:
08
1@
0=
17
03
02
01
00
0#
0$
0%
0&
#960000
0!
04
05
1(
#970000
1!
14
15
0(
1A
18
19
07
1/
10
1'
1&
#980000
0!
04
05
1(
#990000
1!
14
15
0(
1:
08
17
11
00
1%
0&
