flip_flop/proj/simulation/qsim/flip_flop.msim.vcd
$comment
	File created using the following command:
		vcd file flip_flop.msim.vcd -direction
$end
$date
	Tue Aug 24 21:57:45 2021
$end
$version
	ModelSim Version 10.1d
$end
$timescale
	1ps
$end
$scope module flip_flop_vlg_vec_tst $end
$var reg 1 ! in $end
$var reg 1 " sys_clk $end
$var reg 1 # sys_rst_n $end
$var wire 1 $ out $end
$var wire 1 % sampler $end
$scope module i1 $end
$var wire 1 & gnd $end
$var wire 1 ' vcc $end
$var wire 1 ( unknown $end
$var tri1 1 ) devclrn $end
$var tri1 1 * devpor $end
$var tri1 1 + devoe $end
$var wire 1 , out~output_o $end
$var wire 1 - sys_clk~input_o $end
$var wire 1 . in~input_o $end
$var wire 1 / sys_rst_n~input_o $end
$var wire 1 0 out~reg0_q $end
$upscope $end
$upscope $end
$enddefinitions $end
#0
$dumpvars
1!
1"
1#
0$
x%
0&
1'
x(
1)
1*
1+
0,
1-
1.
1/
00
$end
#5423
0!
0.
0%
#10000
0"
0-
1%
#15623
1!
1.
0%
#20000
1"
1-
1%
10
1,
1$
#21845
0!
0.
0%
#25845
1!
1.
1%
#30000
0"
0-
0%
#31845
0!
0.
1%
#35845
1!
1.
0%
#40000
1"
1-
1%
#40953
0!
0.
0%
#42520
1!
1.
1%
#44286
0!
0.
0%
#45853
1!
1.
1%
#47619
0!
0.
0%
#49186
1!
1.
1%
#50000
0"
0-
0%
#55944
0!
0.
1%
#60000
0#
1"
0/
1-
0%
00
0,
0$
#67744
1!
1.
1%
#70000
0"
0!
0-
0.
0%
#70939
1!
1.
1%
#72639
0!
0.
0%
#75939
1!
1.
1%
#77639
0!
0.
0%
#80000
1#
1"
1!
1/
1-
1.
1%
#80049
0!
0.
0%
#82349
1!
1.
1%
#83382
0!
0.
0%
#85682
1!
1.
1%
#86715
0!
0.
0%
#89015
1!
1.
1%
#90000
0"
0!
0-
0.
0%
#94290
1!
1.
1%
#98590
0!
0.
0%
#100000
1"
1-
1%
#101191
1!
1.
0%
#103641
0!
0.
1%
#106191
1!
1.
0%
#108641
0!
0.
1%
#110000
0"
1!
0-
1.
0%
#111599
0!
0.
1%
#114749
1!
1.
0%
#116599
0!
0.
1%
#119749
1!
1.
0%
#120000
0#
1"
0/
1-
1%
#120721
0!
0.
0%
#122855
1!
1.
1%
#124054
0!
0.
0%
#126188
1!
1.
1%
#127387
0!
0.
0%
#129521
1!
1.
1%
#130000
0"
0-
0%
#139478
0!
0.
1%
#140000
1"
1-
0%
#148878
1!
1.
1%
#150000
0"
0-
0%
#151269
0!
0.
1%
#152603
1!
1.
0%
#154602
0!
0.
1%
#155936
1!
1.
0%
#157935
0!
0.
1%
#159269
1!
1.
0%
#160000
1"
1-
1%
#161658
0!
0.
0%
#166125
1!
1.
1%
#168324
0!
0.
0%
#170000
0"
0-
1%
#172791
1!
1.
0%
#174990
0!
0.
1%
#179457
1!
1.
0%
#180000
1"
0!
1-
0.
1%
#180862
1!
1.
0%
#184662
0!
0.
1%
#190000
0"
0-
0%
#192937
1!
1.
1%
#195470
0!
0.
0%
#199603
1!
1.
1%
#200000
1"
1-
0%
#202136
0!
0.
1%
#206269
1!
1.
0%
#208802
0!
0.
1%
#210000
0"
0-
0%
#210600
1!
1.
1%
#213800
0!
0.
0%
#220000
1"
1!
1-
1.
1%
#220362
0!
0.
0%
#222496
1!
1.
1%
#223695
0!
0.
0%
#225829
1!
1.
1%
#227028
0!
0.
0%
#229162
1!
1.
1%
#230000
0"
0-
0%
#230564
0!
0.
1%
#232298
1!
1.
0%
#233897
0!
0.
1%
#235631
1!
1.
0%
#237230
0!
0.
1%
#238964
1!
1.
0%
#240000
1"
0!
1-
0.
1%
#242526
1!
1.
0%
#245725
0!
0.
1%
#249192
1!
1.
0%
#250000
0"
0-
1%
#252391
0!
0.
0%
#255858
1!
1.
1%
#259057
0!
0.
0%
#260000
1#
1"
1/
1-
1%
#260331
1!
1.
0%
#262631
0!
0.
1%
#265331
1!
1.
0%
#267631
0!
0.
1%
#270000
0"
0-
0%
#270752
1!
1.
1%
#275552
0!
0.
0%
#280000
0#
1"
0/
1-
1%
#280752
1!
1.
0%
#285552
0!
0.
1%
#290000
0"
1!
0-
1.
0%
#290452
0!
0.
1%
#300000
1"
1-
0%
#302652
1!
1.
1%
#310000
0"
0!
0-
0.
0%
#312104
1!
1.
1%
#313854
0!
0.
0%
#317104
1!
1.
1%
#318854
0!
0.
0%
#320000
1#
1"
1!
1/
1-
1.
1%
#323329
0!
0.
0%
#326129
1!
1.
1%
#329995
0!
0.
0%
#330000
0"
0-
1%
#332795
1!
1.
0%
#336661
0!
0.
1%
#339461
1!
1.
0%
#340000
0#
1"
0/
1-
1%
#340324
0!
0.
0%
#343724
1!
1.
1%
#346990
0!
0.
0%
#350000
0"
0-
1%
#350390
1!
1.
0%
#353656
0!
0.
1%
#357056
1!
1.
0%
#360000
1"
0!
1-
0.
1%
#361365
1!
1.
0%
#362964
0!
0.
1%
#364698
1!
1.
0%
#366297
0!
0.
1%
#368031
1!
1.
0%
#369630
0!
0.
1%
#370000
0"
1!
0-
1.
0%
#370611
0!
0.
1%
#372845
1!
1.
0%
#373944
0!
0.
1%
#376178
1!
1.
0%
#377277
0!
0.
1%
#379511
1!
1.
0%
#380000
1"
1-
1%
#381624
0!
0.
0%
#387824
1!
1.
1%
#390000
0"
0-
0%
#396281
0!
0.
1%
#400000
1#
1"
1/
1-
0%
#406681
1!
1.
1%
#410000
0"
0!
0-
0.
0%
#410513
1!
1.
1%
#411646
0!
0.
0%
#413846
1!
1.
1%
#414979
0!
0.
0%
#417179
1!
1.
1%
#418312
0!
0.
0%
#420000
0#
1"
0/
1-
1%
#422318
1!
1.
0%
#426618
0!
0.
1%
#430000
0"
0-
0%
#430621
1!
1.
1%
#431754
0!
0.
0%
#433954
1!
1.
1%
#435087
0!
0.
0%
#437287
1!
1.
1%
#438420
0!
0.
0%
#440000
1"
1!
1-
1.
1%
#441242
0!
0.
0%
#444742
1!
1.
1%
#446242
0!
0.
0%
#449742
1!
1.
1%
#450000
0"
0-
0%
#450942
0!
0.
1%
#453076
1!
1.
0%
#454275
0!
0.
1%
#456409
1!
1.
0%
#457608
0!
0.
1%
#459742
1!
1.
0%
#460000
1#
1"
1/
1-
1%
#463427
0!
0.
0%
#469027
1!
1.
1%
#470000
0"
0-
0%
#473427
0!
0.
1%
#479027
1!
1.
0%
#480000
0#
1"
0/
1-
1%
#482407
0!
0.
0%
#484907
1!
1.
1%
#487407
0!
0.
0%
#489907
1!
1.
1%
#490000
0"
0!
0-
0.
0%
#490157
1!
1.
1%
#494757
0!
0.
0%
#500000
1#
1"
1/
1-
1%
#500157
1!
1.
0%
#504757
0!
0.
1%
#510000
0"
1!
0-
1.
0%
#510049
0!
0.
1%
#511683
1!
1.
0%
#513382
0!
0.
1%
#515016
1!
1.
0%
#516715
0!
0.
1%
#518349
1!
1.
0%
#520000
1"
0!
1-
0.
1%
10
1,
1$
#520427
1!
1.
0%
#527827
0!
0.
1%
#530000
0"
0-
0%
#540000
1"
1-
1%
00
0,
0$
#540111
1!
1.
0%
#541177
0!
0.
1%
#543444
1!
1.
0%
#544510
0!
0.
1%
#546777
1!
1.
0%
#547843
0!
0.
1%
#550000
0"
1!
0-
1.
0%
#551294
0!
0.
1%
#552928
1!
1.
0%
#554627
0!
0.
1%
#556261
1!
1.
0%
#557960
0!
0.
1%
#559594
1!
1.
0%
#560000
1"
1-
1%
10
1,
1$
#563396
0!
0.
0%
#569196
1!
1.
1%
#570000
0"
0-
0%
#573396
0!
0.
1%
#579196
1!
1.
0%
#580000
0#
1"
0!
0/
1-
0.
1%
00
0,
0$
#582225
1!
1.
0%
#589625
0!
0.
1%
#590000
0"
0-
0%
#600000
1#
1"
1/
1-
1%
#606596
1!
1.
0%
#609996
0!
0.
1%
#610000
0"
0-
0%
#616596
1!
1.
1%
#619996
0!
0.
0%
#620000
1"
1!
1-
1.
1%
#620827
0!
0.
0%
#623227
1!
1.
1%
#625827
0!
0.
0%
#628227
1!
1.
1%
#630000
0"
0-
0%
#633344
0!
0.
1%
#639044
1!
1.
0%
#640000
0#
1"
0/
1-
1%
#643344
0!
0.
0%
#649044
1!
1.
1%
#650000
0"
0-
0%
#651553
0!
0.
1%
#657553
1!
1.
0%
#660000
1"
1-
1%
#661789
0!
0.
0%
#666322
1!
1.
1%
#668455
0!
0.
0%
#670000
0"
0-
1%
#672988
1!
1.
0%
#675121
0!
0.
1%
#679654
1!
1.
0%
#680000
1"
0!
1-
0.
1%
#681556
1!
1.
0%
#683122
0!
0.
1%
#684889
1!
1.
0%
#686455
0!
0.
1%
#688222
1!
1.
0%
#689788
0!
0.
1%
#690000
0"
1!
0-
1.
0%
#692906
0!
0.
1%
#698406
1!
1.
0%
#700000
1"
1-
1%
#702906
0!
0.
0%
#708406
1!
1.
1%
#710000
0"
0-
0%
#712521
0!
0.
1%
#720000
1#
1"
1/
1-
0%
#720721
1!
1.
1%
#730000
0"
0-
0%
#732551
0!
0.
1%
#737951
1!
1.
0%
#740000
0#
1"
0!
0/
1-
0.
1%
#742542
1!
1.
0%
#744942
0!
0.
1%
#747542
1!
1.
0%
#749942
0!
0.
1%
#750000
0"
1!
0-
1.
0%
#751777
0!
0.
1%
#756310
1!
1.
0%
#758443
0!
0.
1%
#760000
1"
1-
0%
#762976
1!
1.
1%
#765109
0!
0.
0%
#769642
1!
1.
1%
#770000
0"
0-
0%
#770860
0!
0.
1%
#777160
1!
1.
0%
#780000
1"
1-
1%
#780860
0!
0.
0%
#787160
1!
1.
1%
#790000
0"
0-
0%
#790228
0!
0.
1%
#794295
1!
1.
0%
#796894
0!
0.
1%
#800000
1"
1-
0%
#800961
1!
1.
1%
#803560
0!
0.
0%
#807627
1!
1.
1%
#810000
0"
0!
0-
0.
0%
#813748
1!
1.
1%
#817748
0!
0.
0%
#820000
1"
1-
1%
#823932
1!
1.
0%
#827932
0!
0.
1%
#830000
0"
0-
0%
#833932
1!
1.
1%
#837932
0!
0.
0%
#840000
1"
1-
1%
#840338
1!
1.
0%
#841537
0!
0.
1%
#843671
1!
1.
0%
#844870
0!
0.
1%
#847004
1!
1.
0%
#848203
0!
0.
1%
#850000
0"
0-
0%
#850821
1!
1.
1%
#851854
0!
0.
0%
#854154
1!
1.
1%
#855187
0!
0.
0%
#857487
1!
1.
1%
#858520
0!
0.
0%
#860000
1"
1-
1%
#861443
1!
1.
0%
#864843
0!
0.
1%
#870000
0"
0-
0%
#870262
1!
1.
1%
#871461
0!
0.
0%
#873595
1!
1.
1%
#874794
0!
0.
0%
#876928
1!
1.
1%
#878127
0!
0.
0%
#880000
1"
1-
1%
#887284
1!
1.
0%
#890000
0"
0-
1%
#895484
0!
0.
0%
#900000
1#
1"
1/
1-
1%
#903044
1!
1.
0%
#906243
0!
0.
1%
#909710
1!
1.
0%
#910000
0"
0-
1%
#912909
0!
0.
0%
#916376
1!
1.
1%
#919575
0!
0.
0%
#920000
1"
1!
1-
1.
1%
#921846
0!
0.
0%
#927346
1!
1.
1%
#930000
0"
0-
0%
#935586
0!
0.
1%
#940000
1"
1-
0%
#944586
1!
1.
1%
#950000
0"
0!
0-
0.
0%
#955679
1!
1.
1%
#958979
0!
0.
0%
#960000
1"
1-
1%
#965679
1!
1.
0%
#968979
0!
0.
1%
#970000
0"
1!
0-
1.
0%
#972263
0!
0.
1%
#977863
1!
1.
0%
#980000
1"
0!
1-
0.
1%
10
1,
1$
#980481
1!
1.
0%
#982747
0!
0.
1%
#987147
1!
1.
0%
#989413
0!
0.
1%
#990000
0"
0-
0%
#993813
1!
1.
1%
#996079
0!
0.
0%
