full_adder/proj/simulation/qsim/full_adder.msim.vcd
$comment
	File created using the following command:
		vcd file full_adder.msim.vcd -direction
$end
$date
	Mon Aug 23 17:52:27 2021
$end
$version
	ModelSim Version 10.1d
$end
$timescale
	1ps
$end
$scope module full_adder_vlg_vec_tst $end
$var reg 1 ! cin $end
$var reg 1 " in_1 $end
$var reg 1 # in_2 $end
$var wire 1 $ count $end
$var wire 1 % sum $end
$var wire 1 & sampler $end
$scope module i1 $end
$var wire 1 ' gnd $end
$var wire 1 ( vcc $end
$var wire 1 ) unknown $end
$var tri1 1 * devclrn $end
$var tri1 1 + devpor $end
$var tri1 1 , devoe $end
$var wire 1 - sum~output_o $end
$var wire 1 . count~output_o $end
$var wire 1 / cin~input_o $end
$var wire 1 0 in_2~input_o $end
$var wire 1 1 in_1~input_o $end
$var wire 1 2 half_adder_inst1|Add0~0_combout $end
$var wire 1 3 count~0_combout $end
$upscope $end
$upscope $end
$enddefinitions $end
#0
$dumpvars
0!
0"
1#
0$
1%
x&
0'
1(
x)
1*
1+
1,
1-
0.
0/
10
01
12
03
$end
#10000
1!
1"
1/
11
0&
13
1.
1$
#20000
0#
0"
00
01
1&
03
0.
0$
#30000
1#
10
0&
13
02
1.
0-
1$
0%
#40000
0!
0/
1&
03
12
0.
1-
0$
1%
#50000
0#
1!
00
1/
0&
#60000
1"
11
1&
13
02
1.
0-
1$
0%
#70000
1#
10
0&
12
1-
1%
#80000
0!
0/
1&
02
0-
0%
#100000
0"
01
0&
03
12
0.
1-
0$
1%
#110000
1!
1/
1&
13
02
1.
0-
1$
0%
#130000
0#
1"
0!
00
11
0/
0&
03
12
0.
1-
0$
1%
#140000
0"
1!
01
1/
1&
#150000
1#
10
0&
13
02
1.
0-
1$
0%
#160000
1"
0!
0#
11
0/
00
1&
03
12
0.
1-
0$
1%
#170000
0"
1#
01
10
0&
#180000
1"
11
1&
13
02
1.
0-
1$
0%
#190000
0#
00
0&
03
12
0.
1-
0$
1%
#210000
1!
0"
1/
01
1&
#220000
1#
10
0&
13
02
1.
0-
1$
0%
#230000
0!
0/
1&
03
12
0.
1-
0$
1%
#240000
0#
00
0&
02
0-
0%
#250000
1"
1#
11
10
1&
13
1.
1$
#260000
0"
01
0&
03
12
0.
1-
0$
1%
#280000
1!
1"
1/
11
1&
13
1.
1$
#290000
0!
0/
0&
02
0-
0%
#300000
1!
1/
1&
12
1-
1%
#310000
0"
01
0&
02
0-
0%
#320000
0#
0!
1"
00
0/
11
1&
03
12
0.
1-
0$
1%
#330000
0"
01
0&
02
0-
0%
#340000
1"
11
1&
12
1-
1%
#350000
1#
0"
10
01
0&
#360000
0#
1"
00
11
1&
#370000
1!
0"
1/
01
0&
#380000
0!
0/
1&
02
0-
0%
#390000
1"
11
0&
12
1-
1%
#400000
1#
1!
0"
10
1/
01
1&
13
02
1.
0-
1$
0%
#410000
1"
11
0&
12
1-
1%
#420000
0"
01
1&
02
0-
0%
#430000
0!
0/
0&
03
12
0.
1-
0$
1%
#440000
1"
11
1&
13
02
1.
0-
1$
0%
#450000
0#
1!
00
1/
0&
#460000
0"
0!
01
0/
1&
03
0.
0$
#470000
1#
10
0&
12
1-
1%
#480000
1"
11
1&
13
02
1.
0-
1$
0%
#490000
1!
0"
1/
01
0&
#500000
0!
1"
0/
11
1&
#510000
0#
00
0&
03
12
0.
1-
0$
1%
#520000
1!
1#
1/
10
1&
13
1.
1$
#530000
0!
0#
0/
00
0&
03
0.
0$
#540000
0"
1!
1#
01
1/
10
1&
13
02
1.
0-
1$
0%
#550000
1"
0#
11
00
0&
#560000
0"
1#
01
10
1&
#570000
0!
0/
0&
03
12
0.
1-
0$
1%
#580000
1"
11
1&
13
02
1.
0-
1$
0%
#590000
0#
0"
00
01
0&
03
0.
0$
#600000
1"
11
1&
12
1-
1%
#620000
1#
10
0&
13
02
1.
0-
1$
0%
#630000
1!
0"
1/
01
1&
#640000
0!
1"
0/
11
0&
#670000
1!
1/
1&
12
1-
1%
#680000
0#
0"
00
01
0&
03
0.
0$
#690000
0!
0/
1&
02
0-
0%
#700000
1#
10
0&
12
1-
1%
#710000
1"
0#
11
00
1&
#720000
1!
0"
1#
1/
01
10
0&
13
02
1.
0-
1$
0%
#730000
0!
0#
0/
00
1&
03
0.
0$
#740000
1"
1!
11
1/
0&
13
1.
1$
#750000
1#
0"
0!
10
01
0/
1&
03
12
0.
1-
0$
1%
#760000
0#
1"
00
11
0&
#770000
1!
0"
1/
01
1&
#780000
1#
0!
10
0/
0&
#790000
1!
1/
1&
13
02
1.
0-
1$
0%
#800000
1"
0#
11
00
0&
#810000
0"
1#
01
10
1&
#820000
0!
1"
0/
11
0&
#840000
0#
1!
0"
00
1/
01
1&
03
12
0.
1-
0$
1%
#850000
1"
11
0&
13
02
1.
0-
1$
0%
#870000
1#
10
1&
12
1-
1%
#880000
0!
0"
0#
0/
01
00
0&
03
02
0.
0-
0$
0%
#890000
1"
1#
11
10
1&
13
1.
1$
#900000
1!
0#
1/
00
0&
#910000
0"
01
1&
03
12
0.
1-
0$
1%
#930000
0!
1"
0/
11
0&
#950000
1#
10
1&
13
02
1.
0-
1$
0%
#960000
0"
01
0&
03
12
0.
1-
0$
1%
#970000
0#
00
1&
02
0-
0%
#990000
1"
1#
11
10
0&
13
1.
1$
